Mateo Jacques - Example Analysis
…
`summarise()` has grouped output by 'year', 'month'. You can override using the
`.groups` argument.

#This is what the data looks like:

wrangled

# A tibble: 185 × 6
    year month carrier           mean_delay   Q25   Q75
   <int> <int> <fct>                  <dbl> <dbl> <dbl>
 1  2013     1 Endeavor Air           16.9     -5 12   
 2  2013     1 American Airlines       6.93    -5  4.5 
 3  2013     1 Alaska Airlines         7.35    -7  8.75
 4  2013     1 JetBlue                 9.49    -5  9   
 5  2013     1 Delta Air Lines         3.85    -5  0   
 6  2013     1 ExpressJet             24.2     -4 36   
 7  2013     1 Frontier Airlines      10       -4  0   
 8  2013     1 AirTran Airways         1.97    -7  0   
 9  2013     1 Hawaiian Airlines      54.4     -4  5   
10  2013     1 Envoy Air               6.49    -7  1   
# ℹ 175 more rows
…
